{
  "ignore": [
    ".*/**/*",
    "lib/**/*",
    "docs/**/*",
    "coverage/**/*",
    ".eslintignore",
    ".eslintrc",
    ".gitattributes",
    ".gitignore",
    ".gitlab-ci.yml",
    ".npmignore",
    ".prettierrc",
    "AUTHORS",
    "CONTACT.txt",
    "LICENCE",
    "README.md"
  ],
  "license": "LICENCE",
  "defaultFormat": {
    "prepend": "/*",
    "append": "*/"
  },
  "licenseFormats": {
    "html|xml|svg": {
      "prepend": "<!--",
      "append": "-->\n"
    },
    "js|jsx|ts|tsx|css|scss|less|php|as|c|java|cpp|go|cto|acl": {
      "prepend": "/* *",
      "append": " * */\n",
      "eachLine": {
        "prepend": " * "
      }
    }
  },
  "trailingWhitespace": "TRIM"
}
